36645133_MICB425_FINAL_PORTFOLIO
…
Loading, parsing (initial data contains data for all genes - we are only interested in narG), renaming data. We only require the taxonomy, abundance, and query data.

Data manipulation into a single data frame

## Warning: Expected 7 pieces. Missing pieces filled with `NA` in 8302
## rows [1, 2, 3, 4, 5, 6, 7, 8, 9, 10, 11, 12, 13, 14, 15, 16, 17, 18, 19,
## 20, ...].

Warning above were ignored, because not all queries could be classified down to species level. These cells are filled as NA

Final data table

Table 1. Final data of narG gene

## # A tibble: 8,302 x 11
##    Depth_m Type  Abundance Domain  Phylum Class Order Family Genus Species
##      <dbl> <chr>     <dbl> <chr>   <chr>  <chr> <chr> <chr>  <chr> <chr>  
##  1     10. DNA        7.97 Bacter~ <NA>   <NA>  <NA>  <NA>   <NA>  <NA>   
##  2     10. DNA        1.43 Bacter~ Prote~ Gamm~ uncl~ Candi~ <NA>  <NA>   
##  3     10. DNA        1.59 Bacter~ Prote~ <NA>  <NA>  <NA>   <NA>  <NA>   
##  4     10. DNA        1.02 Bacter~ Prote~ Beta~ Burk~ Burkh~ <NA>  <NA>   
##  5     10. DNA        1.45 Bacter~ Prote~ Gamm~ uncl~ Candi~ <NA>  <NA>   
##  6     10. DNA        1.34 Bacter~ Prote~ Alph~ Pela~ envir~ <NA>  <NA>   
##  7     10. DNA        1.64 Bacter~ Prote~ Gamm~ uncl~ sulfu~ <NA>  <NA>   
##  8     10. DNA        1.65 Bacter~ Prote~ Gamm~ uncl~ Candi~ <NA>  <NA>   
##  9     10. DNA        3.32 Bacter~ Prote~ Gamm~ uncl~ Candi~ <NA>  <NA>   
## 10     10. DNA       NA    Bacter~ Actin~ Acti~ Micr~ Micro~ <NA>  <NA>   
## # ... with 8,292 more rows, and 1 more variable: Query <chr>
…
